…
``` r
#determines that yes, there are data points which are outliers. These will be filtered in the next step  

#2) What direction has the highest median speed at each airport? Make a table and a plot of median wind speed by direction, for each airport. Optional fun challenge: If you like, this is a rare opportunity to make use of coord_polar().


wind_direction %>% #begins the pipe loading the vector
  filter(wind_speed<253 | wind_speed<0 ) %>% #selects only the rows in which the wind speed is less than 253mph which is the highest recorded non-tornado windspeed on earth and greater than zero (negative numbers should not be possible)
  group_by(origin,wind_dir) %>% #groups the windspeed by origin and direction
  summarize(median_speed = median(wind_speed)) %>% #calculates the median wind speed for each direction
  print() %>% #prints a table showing the median speed of each direction and origin
  ggplot(aes(x=wind_dir, y=median_speed))+facet_wrap(~origin)+geom_bar(stat="identity") #plots the data in three faceted bar graphs separated by origin
```

    ## Source: local data frame [114 x 3]
    ## Groups: origin [?]
    ## 
    ##    origin wind_dir median_speed
    ##     <chr>    <dbl>        <dbl>
    ## 1     EWR        0      0.00000
    ## 2     EWR       10      9.20624
    ## 3     EWR       20      9.20624
    ## 4     EWR       30      9.20624
    ## 5     EWR       40     10.35702
    ## 6     EWR       50      8.05546
    ## 7     EWR       60      8.05546
    ## 8     EWR       70      6.90468
    ## 9     EWR       80      6.90468
    ## 10    EWR       90      6.32929
    ## # ... with 104 more rows
…
``` r
top10namehistory <- babynames %>% #loads the original babynames dataset into the vector
  inner_join(topnames_2014,by = c("sex", "name")) %>% #joins the two data tables by both the sex and the name 
  print() #prints the resulting data table
```

    ## # A tibble: 2,470 × 5
    ##     year   sex      name     n         prop
    ##    <dbl> <chr>     <chr> <int>        <dbl>
    ## 1   1880     F      Emma  2003 0.0205216999
    ## 2   1880     F Charlotte   237 0.0024281792
    ## 3   1880     F     Emily   210 0.0021515512
    ## 4   1880     F    Sophia   138 0.0014138765
    ## 5   1880     F  Isabella    50 0.0005122741
    ## 6   1880     F    Olivia    44 0.0004508012
    ## 7   1880     F       Ava    13 0.0001331913
    ## 8   1880     F   Abigail    12 0.0001229458
    ## 9   1880     M   William  9531 0.0804989907
    ## 10  1880     M     James  5927 0.0500595444
    ## # ... with 2,460 more rows
…
#going back lets see if wind speed changes with temperature over the year.
#We will need to average the temperature for each day to reduce the effects of day/night cycles, then average the windspeed for each day.
#we will then need to compare the average daily wind speed to the average daily temperature for each airport.
#we can then plot both wind speed and temperature on the y axis and each day on the x axis.

Windspeed_temp <- nycflights13::weather %>% #loads the dataset into the vector
  filter(wind_speed<253 | wind_speed<0 ) %>% #selects only the rows in which the wind speed is less than 253mph which is the highest recorded non-tornado windspeed on earth and greater than zero (negative numbers should not be possible)
  group_by(origin, month, day) %>%
  summarise_each(funs(mean)) %>% #summarizes each column based on the grouping, variables used for grouping are unaffected
  select(origin,wind_speed,temp, month, day) %>%
  print()
```

    ## Source: local data frame [1,092 x 5]
    ## Groups: origin, month [36]
    ## 
    ##    origin wind_speed    temp month   day
    ##     <chr>      <dbl>   <dbl> <dbl> <int>
    ## 1     EWR  12.758648 38.4800     1     1
    ## 2     EWR  12.514732 28.8350     1     2
    ## 3     EWR   7.863663 29.4575     1     3
    ## 4     EWR  13.857309 33.4775     1     4
    ## 5     EWR  10.836512 36.7325     1     5
    ## 6     EWR   8.007511 37.9700     1     6
    ## 7     EWR   8.870596 41.2775     1     7
    ## 8     EWR   6.616985 38.3150     1     8
    ## 9     EWR   4.651069 40.7825     1     9
    ## 10    EWR  10.117274 44.1875     1    10
    ## # ... with 1,082 more rows
…
